{
    "basename": "asr-bits_05-1b98f97",
    "cmd": "lfortran --show-asr --no-color {infile} -o {outfile}",
    "infile": "tests/../integration_tests/bits_05.f90",
    "infile_hash": "9a68b4d514588f51399782270c3a63efb0fe5d3fce1c4617547842cc",
    "outfile": null,
    "outfile_hash": null,
    "stdout": "asr-bits_05-1b98f97.stdout",
    "stdout_hash": "0e953d7de36c38e8157e5edccd1d516548305f5c410aee7723cdec84",
    "stderr": null,
    "stderr_hash": null,
    "returncode": 0
}