{
    "basename": "asr-submodule_02-9152b7b",
    "cmd": "lfortran --show-asr --no-color {infile} -o {outfile}",
    "infile": "tests/../integration_tests/submodule_02.f90",
    "infile_hash": "eb5651198a139f1a3e4bda3dd45dc20f0f6ceb8f961eff3d2cff2342",
    "outfile": null,
    "outfile_hash": null,
    "stdout": "asr-submodule_02-9152b7b.stdout",
    "stdout_hash": "4a792f529b885053a438507ec1c311b29f34f16e53ff9083f2b5d809",
    "stderr": null,
    "stderr_hash": null,
    "returncode": 0
}