{
    "basename": "asr-nested_01-290187e",
    "cmd": "lfortran --show-asr --no-color {infile} -o {outfile}",
    "infile": "tests/../integration_tests/nested_01.f90",
    "infile_hash": "4675b48954591a1e2f73ecf9b769ca335945b16b07ff6191f1445a8f",
    "outfile": null,
    "outfile_hash": null,
    "stdout": "asr-nested_01-290187e.stdout",
    "stdout_hash": "94b9b14d1adada235a78a8b8632fc0d0fc570b4360094609828ea194",
    "stderr": null,
    "stderr_hash": null,
    "returncode": 0
}