{
    "basename": "asr-intrinsics_26-f10d0e6",
    "cmd": "lfortran --show-asr --no-color {infile} -o {outfile}",
    "infile": "tests/../integration_tests/intrinsics_26.f90",
    "infile_hash": "6f188062412b32185ec5b7c5db08e46b54f4d9614541bc7e7c7ae271",
    "outfile": null,
    "outfile_hash": null,
    "stdout": "asr-intrinsics_26-f10d0e6.stdout",
    "stdout_hash": "51c90a6b2857378f2f2094182e9d8e0178967fb5b2f43d859098f8da",
    "stderr": null,
    "stderr_hash": null,
    "returncode": 0
}