{
    "basename": "asr-sin_03-8490135",
    "cmd": "lfortran --show-asr --no-color {infile} -o {outfile}",
    "infile": "tests/../integration_tests/sin_03.f90",
    "infile_hash": "3c036b8aabdbfddc3c46fb69183c427f7991b105c361b785872acf59",
    "outfile": null,
    "outfile_hash": null,
    "stdout": "asr-sin_03-8490135.stdout",
    "stdout_hash": "360967bf93ef99db0c3553cccce8fdac10c45594f4c5b411a72f9520",
    "stderr": null,
    "stderr_hash": null,
    "returncode": 0
}