{
    "basename": "asr-doloop_04-6ff18c8",
    "cmd": "lfortran --show-asr --no-color {infile} -o {outfile}",
    "infile": "tests/../integration_tests/doloop_04.f90",
    "infile_hash": "a8d3b1711d8ac0c6351904c8e1e1d34527d879987044335492d5ad61",
    "outfile": null,
    "outfile_hash": null,
    "stdout": "asr-doloop_04-6ff18c8.stdout",
    "stdout_hash": "c21243dbe4147821587e13626debc708f1a2b3a15be1a4547ee74e3e",
    "stderr": null,
    "stderr_hash": null,
    "returncode": 0
}